Nausea/Bodt Temperature: Cross-Validation, ROC-Auc, and RMSE
…
#making a path for the logistic regression models
log_mod <- logistic_reg() %>% set_engine("glm")

#Creating a workflow that adds the model type and the recipe I previously made
Nausea_wrkflow <- workflow() %>% add_model(log_mod) %>% add_recipe(Nausea_recipe)

#Creating a fit object
Nausea_fit <- Nausea_wrkflow %>% fit(data = training)

#Looking at the details of this fitted model
Nausea_fit %>% extract_fit_parsnip() %>% tidy()

## # A tibble: 38 x 5
##    term                 estimate std.error statistic p.value
##    <chr>                   <dbl>     <dbl>     <dbl>   <dbl>
##  1 (Intercept)             1.70      9.08      0.188  0.851 
##  2 SwollenLymphNodesYes   -0.179     0.235    -0.761  0.447 
##  3 ChestCongestionYes      0.214     0.253     0.846  0.397 
##  4 ChillsSweatsYes         0.169     0.334     0.506  0.613 
##  5 NasalCongestionYes      0.673     0.302     2.23   0.0260
##  6 CoughYNYes             -0.297     0.612    -0.485  0.628 
##  7 SneezeYes               0.130     0.254     0.512  0.609 
##  8 FatigueYes             -0.114     0.456    -0.249  0.803 
##  9 SubjectiveFeverYes      0.119     0.273     0.434  0.664 
## 10 HeadacheYes             0.258     0.347     0.742  0.458 
## # ... with 28 more rows

Evaluating Model

Now that we have a fitted object, we will apply it to the test data and predict some values.

#We are predicting the values from the test data set with our fitted model
predict(Nausea_fit, test)

## Warning in predict.lm(object, newdata, se.fit, scale = 1, type = if (type == :
## prediction from a rank-deficient fit may be misleading

## # A tibble: 183 x 1
##    .pred_class
##    <fct>      
##  1 No         
##  2 No         
##  3 No         
##  4 No         
##  5 No         
##  6 No         
##  7 Yes        
##  8 No         
##  9 No         
## 10 Yes        
## # ... with 173 more rows
…
## # A tibble: 2 x 5
##   term         estimate std.error statistic    p.value
##   <chr>           <dbl>     <dbl>     <dbl>      <dbl>
## 1 (Intercept)   -0.749      0.168    -4.45  0.00000851
## 2 RunnyNoseYes   0.0639     0.200     0.319 0.749

Evaluating Model

Now that we have a fitted object, we will apply it to the test data and predict some values.

#We are predicting the values from the test data set with our fitted model
predict(Nausea_fit2, test)

## # A tibble: 183 x 1
##    .pred_class
##    <fct>      
##  1 No         
##  2 No         
##  3 No         
##  4 No         
##  5 No         
##  6 No         
##  7 No         
##  8 No         
##  9 No         
## 10 No         
## # ... with 173 more rows
…
Adjusting workflow for the model working with continuous outcome Body Temp

#Creating a workflow that adds the model type and the recipe
BT_wrkflow <- workflow() %>% 
  add_model(lm_mod) %>% 
  add_recipe(BT_recipe)

#Creating a fit object
BT_fit <- BT_wrkflow %>% fit(data = training)

#Looking at the details of this fitted model
BT_fit %>% extract_fit_parsnip() %>% tidy()

## # A tibble: 38 x 5
##    term                 estimate std.error statistic  p.value
##    <chr>                   <dbl>     <dbl>     <dbl>    <dbl>
##  1 (Intercept)           97.9        0.361   271.    0       
##  2 SwollenLymphNodesYes  -0.180      0.111    -1.62  0.106   
##  3 ChestCongestionYes     0.0555     0.117     0.474 0.635   
##  4 ChillsSweatsYes        0.218      0.151     1.45  0.148   
##  5 NasalCongestionYes    -0.111      0.135    -0.824 0.410   
##  6 CoughYNYes             0.406      0.294     1.38  0.168   
##  7 SneezeYes             -0.421      0.121    -3.49  0.000522
##  8 FatigueYes             0.306      0.196     1.56  0.119   
##  9 SubjectiveFeverYes     0.393      0.127     3.10  0.00202 
## 10 HeadacheYes            0.0713     0.151     0.472 0.637   
## # ... with 28 more rows
…
