Nausea/Body Temperature: Model Fitting using Tidymodels
…
## # A tibble: 1 x 12
##   r.squared adj.r.squared sigma statistic p.value    df logLik   AIC   BIC
##       <dbl>         <dbl> <dbl>     <dbl>   <dbl> <dbl>  <dbl> <dbl> <dbl>
## 1    0.0123        0.0110  1.19      9.08 0.00268     1 -1162. 2329. 2343.
## # ... with 3 more variables: deviance <dbl>, df.residual <int>, nobs <int>

#Linear regression model for body temperature with all predictors
lm_fit2 <- lm_mod %>% fit(BodyTemp ~ ., data = mydata)

#This is a clean table looking at the model for body temperature with all predictors. 
lmtab2 = tidy(lm_fit2)
lmtab2

## # A tibble: 38 x 5
##    term                 estimate std.error statistic   p.value
##    <chr>                   <dbl>     <dbl>     <dbl>     <dbl>
##  1 (Intercept)           97.9       0.304   322.     0        
##  2 SwollenLymphNodesYes  -0.165     0.0920   -1.80   0.0727   
##  3 ChestCongestionYes     0.0873    0.0975    0.895  0.371    
##  4 ChillsSweatsYes        0.201     0.127     1.58   0.114    
##  5 NasalCongestionYes    -0.216     0.114    -1.90   0.0584   
##  6 CoughYNYes             0.314     0.241     1.30   0.193    
##  7 SneezeYes             -0.362     0.0983   -3.68   0.000249 
##  8 FatigueYes             0.265     0.161     1.65   0.0996   
##  9 SubjectiveFeverYes     0.437     0.103     4.22   0.0000271
## 10 HeadacheYes            0.0115    0.125     0.0913 0.927    
## # ... with 28 more rows
…
## # A tibble: 1 x 8
##   null.deviance df.null logLik   AIC   BIC deviance df.residual  nobs
##           <dbl>   <int>  <dbl> <dbl> <dbl>    <dbl>       <int> <int>
## 1          945.     729  -472.  949.  958.     945.         728   730

#Logistic regression model of nausea with all predictors
log_fit2 <- log_mod %>% fit(Nausea ~ ., data = mydata)

#A table showing information of the nausea vs all predictors model.
logtab2 = tidy(log_fit2)
logtab2

## # A tibble: 38 x 5
##    term                 estimate std.error statistic p.value
##    <chr>                   <dbl>     <dbl>     <dbl>   <dbl>
##  1 (Intercept)             0.223     7.83     0.0285  0.977 
##  2 SwollenLymphNodesYes   -0.251     0.196   -1.28    0.200 
##  3 ChestCongestionYes      0.276     0.213    1.30    0.195 
##  4 ChillsSweatsYes         0.274     0.288    0.952   0.341 
##  5 NasalCongestionYes      0.426     0.255    1.67    0.0944
##  6 CoughYNYes             -0.140     0.519   -0.271   0.787 
##  7 SneezeYes               0.177     0.210    0.840   0.401 
##  8 FatigueYes              0.229     0.372    0.616   0.538 
##  9 SubjectiveFeverYes      0.278     0.225    1.23    0.218 
## 10 HeadacheYes             0.331     0.285    1.16    0.245 
## # ... with 28 more rows
…
