Nausea/Body Temperature: Machine Learning Modeling
…
## ! Fold1, Repeat5: internal: A correlation computation is required, but `estimate` is const...

## ! Fold2, Repeat5: internal: A correlation computation is required, but `estimate` is const...

## ! Fold3, Repeat5: internal: A correlation computation is required, but `estimate` is const...

## ! Fold4, Repeat5: internal: A correlation computation is required, but `estimate` is const...

## ! Fold5, Repeat5: internal: A correlation computation is required, but `estimate` is const...

#This is showing the various models created by the tree
tree_res %>% 
  collect_metrics()

## # A tibble: 50 x 8
##    cost_complexity tree_depth .metric .estimator     mean     n  std_err .config
##              <dbl>      <int> <chr>   <chr>         <dbl> <int>    <dbl> <chr>  
##  1    0.0000000001          1 rmse    standard     1.19      25  0.0181  Prepro~
##  2    0.0000000001          1 rsq     standard     0.0361    25  0.00422 Prepro~
##  3    0.0000000178          1 rmse    standard     1.19      25  0.0181  Prepro~
##  4    0.0000000178          1 rsq     standard     0.0361    25  0.00422 Prepro~
##  5    0.00000316            1 rmse    standard     1.19      25  0.0181  Prepro~
##  6    0.00000316            1 rsq     standard     0.0361    25  0.00422 Prepro~
##  7    0.000562              1 rmse    standard     1.19      25  0.0181  Prepro~
##  8    0.000562              1 rsq     standard     0.0361    25  0.00422 Prepro~
##  9    0.1                   1 rmse    standard     1.21      25  0.0177  Prepro~
## 10    0.1                   1 rsq     standard   NaN          0 NA       Prepro~
## # ... with 40 more rows
…
#Using tune grid to help create the tuning process using the cross-validation 5-fold
lr_res <- 
  lr_workflow %>% 
  tune_grid(cvfold_data,
            grid = lr_reg_grid,
            control = control_grid(save_pred = TRUE),
            metrics = metric_set(rmse))

#Looking at all of the models created by the LASSO model
lr_res %>% 
  collect_metrics()

## # A tibble: 30 x 7
##     penalty .metric .estimator  mean     n std_err .config              
##       <dbl> <chr>   <chr>      <dbl> <int>   <dbl> <chr>                
##  1 0.0001   rmse    standard    1.18    25  0.0167 Preprocessor1_Model01
##  2 0.000127 rmse    standard    1.18    25  0.0167 Preprocessor1_Model02
##  3 0.000161 rmse    standard    1.18    25  0.0167 Preprocessor1_Model03
##  4 0.000204 rmse    standard    1.18    25  0.0167 Preprocessor1_Model04
##  5 0.000259 rmse    standard    1.18    25  0.0167 Preprocessor1_Model05
##  6 0.000329 rmse    standard    1.18    25  0.0167 Preprocessor1_Model06
##  7 0.000418 rmse    standard    1.18    25  0.0167 Preprocessor1_Model07
##  8 0.000530 rmse    standard    1.18    25  0.0167 Preprocessor1_Model08
##  9 0.000672 rmse    standard    1.18    25  0.0167 Preprocessor1_Model09
## 10 0.000853 rmse    standard    1.18    25  0.0167 Preprocessor1_Model10
## # ... with 20 more rows
…
#Creating the tune grid for random forest using the cross-validation 5-fold
rf_res <- 
  rf_workflow %>% 
  tune_grid(cvfold_data,
            grid = 25,
            control = control_grid(save_pred = TRUE),
            metrics = metric_set(rmse))

## i Creating pre-processing data to finalize unknown parameter: mtry

#Looking at the models created by random forest
rf_res %>% 
  collect_metrics()

## # A tibble: 25 x 8
##     mtry min_n .metric .estimator  mean     n std_err .config              
##    <int> <int> <chr>   <chr>      <dbl> <int>   <dbl> <chr>                
##  1     2    16 rmse    standard    1.17    25  0.0167 Preprocessor1_Model01
##  2    29    24 rmse    standard    1.19    25  0.0166 Preprocessor1_Model02
##  3    21    39 rmse    standard    1.18    25  0.0167 Preprocessor1_Model03
##  4    30    26 rmse    standard    1.19    25  0.0167 Preprocessor1_Model04
##  5    18    33 rmse    standard    1.18    25  0.0167 Preprocessor1_Model05
##  6    14    32 rmse    standard    1.17    25  0.0167 Preprocessor1_Model06
##  7    11     5 rmse    standard    1.20    25  0.0165 Preprocessor1_Model07
##  8     8    18 rmse    standard    1.17    25  0.0164 Preprocessor1_Model08
##  9     6    15 rmse    standard    1.17    25  0.0164 Preprocessor1_Model09
## 10    16    23 rmse    standard    1.18    25  0.0166 Preprocessor1_Model10
## # ... with 15 more rows
…
