Tidy Tuesday
…
#Shows the top authors who has written/contributed to the most papers
distinct_paper %>% group_by(name) %>% summarise(Count = n()) %>% arrange(desc(Count))

## # A tibble: 3,402 x 2
##    name               Count
##    <chr>              <int>
##  1 Joshua Aizenman      176
##  2 Martin S Feldstein   164
##  3 James J Heckman      156
##  4 Richard B Freeman    146
##  5 David Neumark        129
##  6 Andrei Shleifer      127
##  7 Assaf Razin          124
##  8 Joseph E Stiglitz    120
##  9 Sebastian Edwards    120
## 10 Michael D Bordo      119
## # ... with 3,392 more rows
…
