Tidy Tuesday 2
…
Some things I want to check out and look at will be how many unique racers are there and how many times each one race in official races. I also want to check how their one lap qualifying lap compares to their actual average lap time. The final thing I want to check out is the total number of points each team earned and if there was some teams that either dominated or struggled compared to the others.

When looking at the number of unique marbles within the races, we can see that there are a total of 32 and each raced four times. I also grouped them by teams as well. This shows that there were two racers per team and they both raced 4 times each. This makes sense as there is a total of eight races within this data set. Therefore the two racers split races for the team.

Table 1

#Creating a table using the count function to count the number of marbles are displayed in the data specifically subsetted to only the offical races

clean_data %>% group_by(team_name, marble_name) %>% summarise(count = n()) %>% ggtitle("Table 1: Number of races for each marble")

## `summarise()` has grouped output by 'team_name'. You can override using the `.groups` argument.

## $title
## # A tibble: 32 x 3
## # Groups:   team_name [16]
##    team_name      marble_name count
##    <chr>          <chr>       <int>
##  1 Balls of Chaos Anarchy         4
##  2 Balls of Chaos Clutter         4
##  3 Green Ducks    Billy           4
##  4 Green Ducks    Mallard         4
##  5 Hazers         Hazy            4
##  6 Hazers         Smoggy          4
##  7 Hornets        Hive            4
##  8 Hornets        Vespa           4
##  9 Limers         Limelime        4
## 10 Limers         Sublime         4
## # ... with 22 more rows
## 
## $subtitle
## [1] "Table 1: Number of races for each marble"
## 
## attr(,"class")
## [1] "labels"
…
